cpu.vcd
$date
	Mon Aug 25 11:17:57 2025
$end
$version
	Icarus Verilog
$end
$timescale
	1s
$end
$scope module testbench $end
$var reg 1 ! clk $end
$var reg 1 " reset $end
$scope module CPU $end
$var wire 1 ! clk $end
$var wire 1 " reset $end
$var wire 1 # zero $end
$var wire 3 $ rs2 [2:0] $end
$var wire 3 % rs1 [2:0] $end
$var wire 1 & reg_write $end
$var wire 19 ' rd2 [18:0] $end
$var wire 19 ( rd1 [18:0] $end
$var wire 3 ) rd [2:0] $end
$var wire 19 * pc_out [18:0] $end
$var wire 5 + opcode [4:0] $end
$var wire 19 , instr [18:0] $end
$var wire 19 - alu_result [18:0] $end
$var wire 3 . alu_op [2:0] $end
$scope module ALU $end
$var wire 1 # zero $end
$var wire 19 / b [18:0] $end
$var wire 3 0 alu_op [2:0] $end
$var wire 19 1 a [18:0] $end
$var reg 19 2 result [18:0] $end
$upscope $end
$scope module CU $end
$var wire 5 3 opcode [4:0] $end
$var reg 3 4 alu_op [2:0] $end
$var reg 1 & reg_write $end
$upscope $end
$scope module IM $end
$var wire 19 5 instr [18:0] $end
$var wire 19 6 addr [18:0] $end
$upscope $end
$scope module PC $end
$var wire 1 ! clk $end
$var wire 19 7 next_pc [18:0] $end
$var wire 1 " reset $end
$var reg 19 8 pc_out [18:0] $end
$upscope $end
$scope module RF $end
$var wire 1 ! clk $end
$var wire 3 9 ra1 [2:0] $end
$var wire 3 : ra2 [2:0] $end
$var wire 19 ; rd1 [18:0] $end
$var wire 19 < rd2 [18:0] $end
$var wire 3 = wa [2:0] $end
$var wire 19 > wd [18:0] $end
$var wire 1 & we $end
$upscope $end
$upscope $end
$upscope $end
$enddefinitions $end
#0
$dumpvars
bx >
b0 =
bx <
bx ;
b0 :
b10 9
b0 8
b1 7
b0 6
b1000000000000 5
b0 4
b0 3
bx 2
bx 1
b0 0
bx /
b0 .
bx -
b1000000000000 ,
b0 +
b0 *
b0 )
bx (
bx '
1&
b10 %
b0 $
x#
1"
0!
$end
#5
b10 .
b10 0
b10 4
b10 $
b10 :
b100 %
b100 9
b10 +
b10 3
b1010001000000101 ,
b1010001000000101 5
b10 7
b1 *
b1 6
b1 8
1!
0"
#10
0!
#15
b0 .
b0 0
b0 4
0&
b11 )
b11 =
b100 $
b100 :
b0 %
b0 9
b100 +
b100 3
b10000010001100100 ,
b10000010001100100 5
b11 7
b10 *
b10 6
b10 8
1!
#20
0!
#25
b0 $
b0 :
b11 %
b11 9
b110 +
b110 3
b11001100001100100 ,
b11001100001100100 5
b100 7
b11 *
b11 6
b11 8
1!
#30
0!
#35
b10 )
b10 =
b110 $
b110 :
b0 %
b0 9
b1001 +
b1001 3
b100100011001000000 ,
b100100011001000000 5
b101 7
b100 *
b100 6
b100 8
1!
#40
0!
#45
b0 )
b0 =
b0 $
b0 :
b11110 +
b11110 3
b1111000000000000000 ,
b1111000000000000000 5
b110 7
b101 *
b101 6
b101 8
1!
#50
0!
#55
bx )
bx =
bx $
bx :
bx %
bx 9
bx +
bx 3
bx ,
bx 5
b111 7
b110 *
b110 6
b110 8
1!
#60
0!
#65
b1000 7
b111 *
b111 6
b111 8
1!
#70
0!
#75
b1001 7
b1000 *
b1000 6
b1000 8
1!
#80
0!
#85
b1010 7
b1001 *
b1001 6
b1001 8
1!
#90
0!
#95
b1011 7
b1010 *
b1010 6
b1010 8
1!
#100
0!
#105
b1100 7
b1011 *
b1011 6
b1011 8
1!
